{
    "markers": [
        {
            "id": "aldi",
            "normal": true,
            "geoLocation": true,
            "timed": false,
            "dated": false,
            "quantity": false,
            "unique": false,
            "monthly": false,
            "weekly": false,

            "location": {
                "x": 0,
                "y": 0
            },

            "minutes": 0,

            "dateTime": {
                "year": 0,
                "month": 0,
                "day": 0,
                "hour": 0,
                "minutes": 0,
                "seconds": 0,
                "miliseconds": 0
            },

            "amount": 0
        },
        {
            "id": "free",
            "normal": true,
            "geoLocation": false,
            "timed": false,
            "dated": false,
            "quantity": false,
            "unique": true,
            "monthly": false,
            "weekly": false,

            "location": {
                "x": 0,
                "y": 0
            },

            "minutes": 0,

            "dateTime": {
                "year": 0,
                "month": 0,
                "day": 0,
                "hour": 0,
                "minutes": 0,
                "seconds": 0,
                "miliseconds": 0
            },

            "amount": 0
        },
        {
            "id": "news",
            "normal": true,
            "geoLocation": false,
            "timed": false,
            "dated": false,
            "quantity": false,
            "unique": true,
            "monthly": false,
            "weekly": false,

            "location": {
                "x": 0,
                "y": 0
            },

            "minutes": 0,

            "dateTime": {
                "year": 0,
                "month": 0,
                "day": 0,
                "hour": 0,
                "minutes": 0,
                "seconds": 0,
                "miliseconds": 0
            },

            "amount": 0
        },
        {
            "id": "impr",
            "normal": true,
            "geoLocation": false,
            "timed": false,
            "dated": false,
            "quantity": false,
            "unique": true,
            "monthly": false,
            "weekly": false,

            "location": {
                "x": 0,
                "y": 0
            },

            "minutes": 0,

            "dateTime": {
                "year": 0,
                "month": 0,
                "day": 0,
                "hour": 0,
                "minutes": 0,
                "seconds": 0,
                "miliseconds": 0
            },

            "amount": 0
        },
        {
            "id": "adrs",
            "normal": true,
            "geoLocation": false,
            "timed": false,
            "dated": false,
            "quantity": false,
            "unique": true,
            "monthly": false,
            "weekly": false,

            "location": {
                "x": 0,
                "y": 0
            },

            "minutes": 0,

            "dateTime": {
                "year": 0,
                "month": 0,
                "day": 0,
                "hour": 0,
                "minutes": 0,
                "seconds": 0,
                "miliseconds": 0
            },

            "amount": 0
        },
        {
            "id": "folh",
            "normal": true,
            "geoLocation": false,
            "timed": false,
            "dated": false,
            "quantity": false,
            "unique": false,
            "monthly": true,
            "weekly": false,

            "location": {
                "x": 0,
                "y": 0
            },

            "minutes": 0,

            "dateTime": {
                "year": 0,
                "month": 0,
                "day": 0,
                "hour": 0,
                "minutes": 0,
                "seconds": 0,
                "miliseconds": 0
            },

            "amount": 0
        },
        {
            "id": "user",
            "normal": true,
            "geoLocation": false,
            "timed": false,
            "dated": false,
            "quantity": false,
            "unique": false,
            "monthly": true,
            "weekly": false,

            "location": {
                "x": 0,
                "y": 0
            },

            "minutes": 0,

            "dateTime": {
                "year": 0,
                "month": 0,
                "day": 0,
                "hour": 0,
                "minutes": 0,
                "seconds": 0,
                "miliseconds": 0
            },

            "amount": 0
        },
        {
            "id": "offr",
            "normal": true,
            "geoLocation": false,
            "timed": false,
            "dated": false,
            "quantity": false,
            "unique": true,
            "monthly": false,
            "weekly": false,

            "location": {
                "x": 0,
                "y": 0
            },

            "minutes": 0,

            "dateTime": {
                "year": 0,
                "month": 0,
                "day": 0,
                "hour": 0,
                "minutes": 0,
                "seconds": 0,
                "miliseconds": 0
            },

            "amount": 0
        },
        {
            "id": "sp01",
            "normal": true,
            "geoLocation": false,
            "timed": false,
            "dated": false,
            "quantity": false,
            "unique": false,
            "monthly": false,
            "weekly": false,
        
            "location": {
                "x": 0,
                "y": 0
            },
        
            "minutes": 0,
        
            "dateTime": {
                "year": 0,
                "month": 0,
                "day": 0,
                "hour": 0,
                "minutes": 0,
                "seconds": 0,
                "miliseconds": 0
            },
        
            "amount": 0
        },
        {
            "id": "sp02",
            "normal": true,
            "geoLocation": false,
            "timed": false,
            "dated": false,
            "quantity": false,
            "unique": false,
            "monthly": false,
            "weekly": false,
        
            "location": {
                "x": 0,
                "y": 0
            },
        
            "minutes": 0,
        
            "dateTime": {
                "year": 0,
                "month": 0,
                "day": 0,
                "hour": 0,
                "minutes": 0,
                "seconds": 0,
                "miliseconds": 0
            },
        
            "amount": 0
        },
        {
            "id": "sp03",
            "normal": true,
            "geoLocation": false,
            "timed": false,
            "dated": false,
            "quantity": false,
            "unique": false,
            "monthly": false,
            "weekly": false,
        
            "location": {
                "x": 0,
                "y": 0
            },
        
            "minutes": 0,
        
            "dateTime": {
                "year": 0,
                "month": 0,
                "day": 0,
                "hour": 0,
                "minutes": 0,
                "seconds": 0,
                "miliseconds": 0
            },
        
            "amount": 0
        },
        {
            "id": "sp04",
            "normal": true,
            "geoLocation": false,
            "timed": false,
            "dated": false,
            "quantity": false,
            "unique": false,
            "monthly": false,
            "weekly": false,
        
            "location": {
                "x": 0,
                "y": 0
            },
        
            "minutes": 0,
        
            "dateTime": {
                "year": 0,
                "month": 0,
                "day": 0,
                "hour": 0,
                "minutes": 0,
                "seconds": 0,
                "miliseconds": 0
            },
        
            "amount": 0
        },
        {
            "id": "sp05",
            "normal": true,
            "geoLocation": false,
            "timed": false,
            "dated": false,
            "quantity": false,
            "unique": false,
            "monthly": false,
            "weekly": false,
        
            "location": {
                "x": 0,
                "y": 0
            },
        
            "minutes": 0,
        
            "dateTime": {
                "year": 0,
                "month": 0,
                "day": 0,
                "hour": 0,
                "minutes": 0,
                "seconds": 0,
                "miliseconds": 0
            },
        
            "amount": 0
        },
        {
            "id": "1111",
            "normal": true,
            "geoLocation": false,
            "timed": false,
            "dated": false,
            "quantity": false,
            "unique": false,
            "monthly": false,
            "weekly": false,
        
            "location": {
                "x": 0,
                "y": 0
            },
        
            "minutes": 0,
        
            "dateTime": {
                "year": 0,
                "month": 0,
                "day": 0,
                "hour": 0,
                "minutes": 0,
                "seconds": 0,
                "miliseconds": 0
            },
        
            "amount": 0
        },
        {
            "id": "2222",
            "normal": true,
            "geoLocation": false,
            "timed": false,
            "dated": false,
            "quantity": false,
            "unique": false,
            "monthly": false,
            "weekly": false,
        
            "location": {
                "x": 0,
                "y": 0
            },
        
            "minutes": 0,
        
            "dateTime": {
                "year": 0,
                "month": 0,
                "day": 0,
                "hour": 0,
                "minutes": 0,
                "seconds": 0,
                "miliseconds": 0
            },
        
            "amount": 0
        },
        {
            "id": "3333",
            "normal": true,
            "geoLocation": false,
            "timed": false,
            "dated": false,
            "quantity": false,
            "unique": false,
            "monthly": false,
            "weekly": false,
        
            "location": {
                "x": 0,
                "y": 0
            },
        
            "minutes": 0,
        
            "dateTime": {
                "year": 0,
                "month": 0,
                "day": 0,
                "hour": 0,
                "minutes": 0,
                "seconds": 0,
                "miliseconds": 0
            },
        
            "amount": 0
        },
        {
            "id": "4444",
            "normal": true,
            "geoLocation": false,
            "timed": false,
            "dated": false,
            "quantity": false,
            "unique": false,
            "monthly": false,
            "weekly": false,
        
            "location": {
                "x": 0,
                "y": 0
            },
        
            "minutes": 0,
        
            "dateTime": {
                "year": 0,
                "month": 0,
                "day": 0,
                "hour": 0,
                "minutes": 0,
                "seconds": 0,
                "miliseconds": 0
            },
        
            "amount": 0
        },
        {
            "id": "5555",
            "normal": true,
            "geoLocation": false,
            "timed": false,
            "dated": false,
            "quantity": false,
            "unique": false,
            "monthly": false,
            "weekly": false,
        
            "location": {
                "x": 0,
                "y": 0
            },
        
            "minutes": 0,
        
            "dateTime": {
                "year": 0,
                "month": 0,
                "day": 0,
                "hour": 0,
                "minutes": 0,
                "seconds": 0,
                "miliseconds": 0
            },
        
            "amount": 0
        },
        {
            "id": "c111",
            "normal": true,
            "geoLocation": true,
            "timed": false,
            "dated": false,
            "quantity": false,
            "unique": false,
            "monthly": false,
            "weekly": false,

            "location": {
                "x": 0,
                "y": 0
            },

            "minutes": 0,

            "dateTime": {
                "year": 0,
                "month": 0,
                "day": 0,
                "hour": 0,
                "minutes": 0,
                "seconds": 0,
                "miliseconds": 0
            },

            "amount": 0
        },
        {
            "id": "cl01",
            "normal": true,
            "geoLocation": false,
            "timed": false,
            "dated": false,
            "quantity": false,
            "unique": false,
            "monthly": false,
            "weekly": false,
        
            "location": {
                "x": 0,
                "y": 0
            },
        
            "minutes": 0,
        
            "dateTime": {
                "year": 0,
                "month": 0,
                "day": 0,
                "hour": 0,
                "minutes": 0,
                "seconds": 0,
                "miliseconds": 0
            },
        
            "amount": 0
        },
        {
            "id": "cl02",
            "normal": true,
            "geoLocation": false,
            "timed": false,
            "dated": false,
            "quantity": false,
            "unique": false,
            "monthly": false,
            "weekly": false,
        
            "location": {
                "x": 0,
                "y": 0
            },
        
            "minutes": 0,
        
            "dateTime": {
                "year": 0,
                "month": 0,
                "day": 0,
                "hour": 0,
                "minutes": 0,
                "seconds": 0,
                "miliseconds": 0
            },
        
            "amount": 0
        },
        {
            "id": "cl03",
            "normal": true,
            "geoLocation": false,
            "timed": false,
            "dated": false,
            "quantity": false,
            "unique": false,
            "monthly": false,
            "weekly": false,
        
            "location": {
                "x": 0,
                "y": 0
            },
        
            "minutes": 0,
        
            "dateTime": {
                "year": 0,
                "month": 0,
                "day": 0,
                "hour": 0,
                "minutes": 0,
                "seconds": 0,
                "miliseconds": 0
            },
        
            "amount": 0
        },
        {
            "id": "cl04",
            "normal": true,
            "geoLocation": false,
            "timed": false,
            "dated": false,
            "quantity": false,
            "unique": false,
            "monthly": false,
            "weekly": false,
        
            "location": {
                "x": 0,
                "y": 0
            },
        
            "minutes": 0,
        
            "dateTime": {
                "year": 0,
                "month": 0,
                "day": 0,
                "hour": 0,
                "minutes": 0,
                "seconds": 0,
                "miliseconds": 0
            },
        
            "amount": 0
        },
        {
            "id": "cl05",
            "normal": true,
            "geoLocation": false,
            "timed": false,
            "dated": false,
            "quantity": false,
            "unique": false,
            "monthly": false,
            "weekly": false,
        
            "location": {
                "x": 0,
                "y": 0
            },
        
            "minutes": 0,
        
            "dateTime": {
                "year": 0,
                "month": 0,
                "day": 0,
                "hour": 0,
                "minutes": 0,
                "seconds": 0,
                "miliseconds": 0
            },
        
            "amount": 0
        },
        {
            "id": "cl06",
            "normal": true,
            "geoLocation": false,
            "timed": false,
            "dated": false,
            "quantity": false,
            "unique": false,
            "monthly": false,
            "weekly": false,
        
            "location": {
                "x": 0,
                "y": 0
            },
        
            "minutes": 0,
        
            "dateTime": {
                "year": 0,
                "month": 0,
                "day": 0,
                "hour": 0,
                "minutes": 0,
                "seconds": 0,
                "miliseconds": 0
            },
        
            "amount": 0
        },
        {
            "id": "cl07",
            "normal": true,
            "geoLocation": false,
            "timed": false,
            "dated": false,
            "quantity": false,
            "unique": false,
            "monthly": false,
            "weekly": false,
        
            "location": {
                "x": 0,
                "y": 0
            },
        
            "minutes": 0,
        
            "dateTime": {
                "year": 0,
                "month": 0,
                "day": 0,
                "hour": 0,
                "minutes": 0,
                "seconds": 0,
                "miliseconds": 0
            },
        
            "amount": 0
        },
        {
            "id": "cl08",
            "normal": true,
            "geoLocation": false,
            "timed": false,
            "dated": false,
            "quantity": false,
            "unique": false,
            "monthly": false,
            "weekly": false,
        
            "location": {
                "x": 0,
                "y": 0
            },
        
            "minutes": 0,
        
            "dateTime": {
                "year": 0,
                "month": 0,
                "day": 0,
                "hour": 0,
                "minutes": 0,
                "seconds": 0,
                "miliseconds": 0
            },
        
            "amount": 0
        },
        {
            "id": "cl09",
            "normal": true,
            "geoLocation": false,
            "timed": false,
            "dated": false,
            "quantity": false,
            "unique": false,
            "monthly": false,
            "weekly": false,
        
            "location": {
                "x": 0,
                "y": 0
            },
        
            "minutes": 0,
        
            "dateTime": {
                "year": 0,
                "month": 0,
                "day": 0,
                "hour": 0,
                "minutes": 0,
                "seconds": 0,
                "miliseconds": 0
            },
        
            "amount": 0
        },
        {
            "id": "cl10",
            "normal": true,
            "geoLocation": false,
            "timed": false,
            "dated": false,
            "quantity": false,
            "unique": false,
            "monthly": false,
            "weekly": false,
        
            "location": {
                "x": 0,
                "y": 0
            },
        
            "minutes": 0,
        
            "dateTime": {
                "year": 0,
                "month": 0,
                "day": 0,
                "hour": 0,
                "minutes": 0,
                "seconds": 0,
                "miliseconds": 0
            },
        
            "amount": 0
        },
        {
            "id": "cl11",
            "normal": true,
            "geoLocation": false,
            "timed": false,
            "dated": false,
            "quantity": false,
            "unique": false,
            "monthly": false,
            "weekly": false,
        
            "location": {
                "x": 0,
                "y": 0
            },
        
            "minutes": 0,
        
            "dateTime": {
                "year": 0,
                "month": 0,
                "day": 0,
                "hour": 0,
                "minutes": 0,
                "seconds": 0,
                "miliseconds": 0
            },
        
            "amount": 0
        },
        {
            "id": "cl12",
            "normal": true,
            "geoLocation": false,
            "timed": false,
            "dated": false,
            "quantity": false,
            "unique": false,
            "monthly": false,
            "weekly": false,
        
            "location": {
                "x": 0,
                "y": 0
            },
        
            "minutes": 0,
        
            "dateTime": {
                "year": 0,
                "month": 0,
                "day": 0,
                "hour": 0,
                "minutes": 0,
                "seconds": 0,
                "miliseconds": 0
            },
        
            "amount": 0
        },
        {
            "id": "cl13",
            "normal": true,
            "geoLocation": false,
            "timed": false,
            "dated": false,
            "quantity": false,
            "unique": false,
            "monthly": false,
            "weekly": false,
        
            "location": {
                "x": 0,
                "y": 0
            },
        
            "minutes": 0,
        
            "dateTime": {
                "year": 0,
                "month": 0,
                "day": 0,
                "hour": 0,
                "minutes": 0,
                "seconds": 0,
                "miliseconds": 0
            },
        
            "amount": 0
        },
        {
            "id": "cl14",
            "normal": true,
            "geoLocation": false,
            "timed": false,
            "dated": false,
            "quantity": false,
            "unique": false,
            "monthly": false,
            "weekly": false,
        
            "location": {
                "x": 0,
                "y": 0
            },
        
            "minutes": 0,
        
            "dateTime": {
                "year": 0,
                "month": 0,
                "day": 0,
                "hour": 0,
                "minutes": 0,
                "seconds": 0,
                "miliseconds": 0
            },
        
            "amount": 0
        },
        {
            "id": "cl15",
            "normal": true,
            "geoLocation": false,
            "timed": false,
            "dated": false,
            "quantity": false,
            "unique": false,
            "monthly": false,
            "weekly": false,
        
            "location": {
                "x": 0,
                "y": 0
            },
        
            "minutes": 0,
        
            "dateTime": {
                "year": 0,
                "month": 0,
                "day": 0,
                "hour": 0,
                "minutes": 0,
                "seconds": 0,
                "miliseconds": 0
            },
        
            "amount": 0
        },
        {
            "id": "cl16",
            "normal": true,
            "geoLocation": false,
            "timed": false,
            "dated": false,
            "quantity": false,
            "unique": false,
            "monthly": false,
            "weekly": false,
        
            "location": {
                "x": 0,
                "y": 0
            },
        
            "minutes": 0,
        
            "dateTime": {
                "year": 0,
                "month": 0,
                "day": 0,
                "hour": 0,
                "minutes": 0,
                "seconds": 0,
                "miliseconds": 0
            },
        
            "amount": 0
        },
        {
            "id": "cl17",
            "normal": true,
            "geoLocation": false,
            "timed": false,
            "dated": false,
            "quantity": false,
            "unique": false,
            "monthly": false,
            "weekly": false,
        
            "location": {
                "x": 0,
                "y": 0
            },
        
            "minutes": 0,
        
            "dateTime": {
                "year": 0,
                "month": 0,
                "day": 0,
                "hour": 0,
                "minutes": 0,
                "seconds": 0,
                "miliseconds": 0
            },
        
            "amount": 0
        },
        {
            "id": "cl18",
            "normal": true,
            "geoLocation": false,
            "timed": false,
            "dated": false,
            "quantity": false,
            "unique": false,
            "monthly": false,
            "weekly": false,
        
            "location": {
                "x": 0,
                "y": 0
            },
        
            "minutes": 0,
        
            "dateTime": {
                "year": 0,
                "month": 0,
                "day": 0,
                "hour": 0,
                "minutes": 0,
                "seconds": 0,
                "miliseconds": 0
            },
        
            "amount": 0
        },
        {
            "id": "cl19",
            "normal": true,
            "geoLocation": false,
            "timed": false,
            "dated": false,
            "quantity": false,
            "unique": false,
            "monthly": false,
            "weekly": false,
        
            "location": {
                "x": 0,
                "y": 0
            },
        
            "minutes": 0,
        
            "dateTime": {
                "year": 0,
                "month": 0,
                "day": 0,
                "hour": 0,
                "minutes": 0,
                "seconds": 0,
                "miliseconds": 0
            },
        
            "amount": 0
        },
        {
            "id": "cl20",
            "normal": true,
            "geoLocation": false,
            "timed": false,
            "dated": false,
            "quantity": false,
            "unique": false,
            "monthly": false,
            "weekly": false,
        
            "location": {
                "x": 0,
                "y": 0
            },
        
            "minutes": 0,
        
            "dateTime": {
                "year": 0,
                "month": 0,
                "day": 0,
                "hour": 0,
                "minutes": 0,
                "seconds": 0,
                "miliseconds": 0
            },
        
            "amount": 0
        },
        {
            "id": "i001",
            "normal": true,
            "geoLocation": false,
            "timed": false,
            "dated": false,
            "quantity": false,
            "unique": false,
            "monthly": false,
            "weekly": false,
        
            "location": {
                "x": 0,
                "y": 0
            },
        
            "minutes": 0,
        
            "dateTime": {
                "year": 0,
                "month": 0,
                "day": 0,
                "hour": 0,
                "minutes": 0,
                "seconds": 0,
                "miliseconds": 0
            },
        
            "amount": 0
        },
        {
            "id": "i002",
            "normal": true,
            "geoLocation": false,
            "timed": false,
            "dated": false,
            "quantity": false,
            "unique": false,
            "monthly": false,
            "weekly": false,
        
            "location": {
                "x": 0,
                "y": 0
            },
        
            "minutes": 0,
        
            "dateTime": {
                "year": 0,
                "month": 0,
                "day": 0,
                "hour": 0,
                "minutes": 0,
                "seconds": 0,
                "miliseconds": 0
            },
        
            "amount": 0
        },
        {
            "id": "i003",
            "normal": true,
            "geoLocation": false,
            "timed": false,
            "dated": false,
            "quantity": false,
            "unique": false,
            "monthly": false,
            "weekly": false,
        
            "location": {
                "x": 0,
                "y": 0
            },
        
            "minutes": 0,
        
            "dateTime": {
                "year": 0,
                "month": 0,
                "day": 0,
                "hour": 0,
                "minutes": 0,
                "seconds": 0,
                "miliseconds": 0
            },
        
            "amount": 0
        },
        {
            "id": "i004",
            "normal": true,
            "geoLocation": false,
            "timed": false,
            "dated": false,
            "quantity": false,
            "unique": false,
            "monthly": false,
            "weekly": false,
        
            "location": {
                "x": 0,
                "y": 0
            },
        
            "minutes": 0,
        
            "dateTime": {
                "year": 0,
                "month": 0,
                "day": 0,
                "hour": 0,
                "minutes": 0,
                "seconds": 0,
                "miliseconds": 0
            },
        
            "amount": 0
        },
        {
            "id": "i005",
            "normal": true,
            "geoLocation": false,
            "timed": false,
            "dated": false,
            "quantity": false,
            "unique": false,
            "monthly": false,
            "weekly": false,
        
            "location": {
                "x": 0,
                "y": 0
            },
        
            "minutes": 0,
        
            "dateTime": {
                "year": 0,
                "month": 0,
                "day": 0,
                "hour": 0,
                "minutes": 0,
                "seconds": 0,
                "miliseconds": 0
            },
        
            "amount": 0
        },
        {
            "id": "i006",
            "normal": true,
            "geoLocation": false,
            "timed": false,
            "dated": false,
            "quantity": false,
            "unique": false,
            "monthly": false,
            "weekly": false,
        
            "location": {
                "x": 0,
                "y": 0
            },
        
            "minutes": 0,
        
            "dateTime": {
                "year": 0,
                "month": 0,
                "day": 0,
                "hour": 0,
                "minutes": 0,
                "seconds": 0,
                "miliseconds": 0
            },
        
            "amount": 0
        },
        {
            "id": "i007",
            "normal": true,
            "geoLocation": false,
            "timed": false,
            "dated": false,
            "quantity": false,
            "unique": false,
            "monthly": false,
            "weekly": false,
        
            "location": {
                "x": 0,
                "y": 0
            },
        
            "minutes": 0,
        
            "dateTime": {
                "year": 0,
                "month": 0,
                "day": 0,
                "hour": 0,
                "minutes": 0,
                "seconds": 0,
                "miliseconds": 0
            },
        
            "amount": 0
        },
        {
            "id": "i008",
            "normal": true,
            "geoLocation": false,
            "timed": false,
            "dated": false,
            "quantity": false,
            "unique": false,
            "monthly": false,
            "weekly": false,
        
            "location": {
                "x": 0,
                "y": 0
            },
        
            "minutes": 0,
        
            "dateTime": {
                "year": 0,
                "month": 0,
                "day": 0,
                "hour": 0,
                "minutes": 0,
                "seconds": 0,
                "miliseconds": 0
            },
        
            "amount": 0
        },
        {
            "id": "i009",
            "normal": true,
            "geoLocation": false,
            "timed": false,
            "dated": false,
            "quantity": false,
            "unique": false,
            "monthly": false,
            "weekly": false,
        
            "location": {
                "x": 0,
                "y": 0
            },
        
            "minutes": 0,
        
            "dateTime": {
                "year": 0,
                "month": 0,
                "day": 0,
                "hour": 0,
                "minutes": 0,
                "seconds": 0,
                "miliseconds": 0
            },
        
            "amount": 0
        },
        {
            "id": "i010",
            "normal": true,
            "geoLocation": false,
            "timed": false,
            "dated": false,
            "quantity": false,
            "unique": false,
            "monthly": false,
            "weekly": false,
        
            "location": {
                "x": 0,
                "y": 0
            },
        
            "minutes": 0,
        
            "dateTime": {
                "year": 0,
                "month": 0,
                "day": 0,
                "hour": 0,
                "minutes": 0,
                "seconds": 0,
                "miliseconds": 0
            },
        
            "amount": 0
        },
        {
            "id": "i011",
            "normal": true,
            "geoLocation": false,
            "timed": false,
            "dated": false,
            "quantity": false,
            "unique": false,
            "monthly": false,
            "weekly": false,
        
            "location": {
                "x": 0,
                "y": 0
            },
        
            "minutes": 0,
        
            "dateTime": {
                "year": 0,
                "month": 0,
                "day": 0,
                "hour": 0,
                "minutes": 0,
                "seconds": 0,
                "miliseconds": 0
            },
        
            "amount": 0
        },
        {
            "id": "i012",
            "normal": true,
            "geoLocation": false,
            "timed": false,
            "dated": false,
            "quantity": false,
            "unique": false,
            "monthly": false,
            "weekly": false,
        
            "location": {
                "x": 0,
                "y": 0
            },
        
            "minutes": 0,
        
            "dateTime": {
                "year": 0,
                "month": 0,
                "day": 0,
                "hour": 0,
                "minutes": 0,
                "seconds": 0,
                "miliseconds": 0
            },
        
            "amount": 0
        },
        {
            "id": "i013",
            "normal": true,
            "geoLocation": false,
            "timed": false,
            "dated": false,
            "quantity": false,
            "unique": false,
            "monthly": false,
            "weekly": false,
        
            "location": {
                "x": 0,
                "y": 0
            },
        
            "minutes": 0,
        
            "dateTime": {
                "year": 0,
                "month": 0,
                "day": 0,
                "hour": 0,
                "minutes": 0,
                "seconds": 0,
                "miliseconds": 0
            },
        
            "amount": 0
        },
        {
            "id": "i014",
            "normal": true,
            "geoLocation": false,
            "timed": false,
            "dated": false,
            "quantity": false,
            "unique": false,
            "monthly": false,
            "weekly": false,
        
            "location": {
                "x": 0,
                "y": 0
            },
        
            "minutes": 0,
        
            "dateTime": {
                "year": 0,
                "month": 0,
                "day": 0,
                "hour": 0,
                "minutes": 0,
                "seconds": 0,
                "miliseconds": 0
            },
        
            "amount": 0
        },
        {
            "id": "i015",
            "normal": true,
            "geoLocation": false,
            "timed": false,
            "dated": false,
            "quantity": false,
            "unique": false,
            "monthly": false,
            "weekly": false,
        
            "location": {
                "x": 0,
                "y": 0
            },
        
            "minutes": 0,
        
            "dateTime": {
                "year": 0,
                "month": 0,
                "day": 0,
                "hour": 0,
                "minutes": 0,
                "seconds": 0,
                "miliseconds": 0
            },
        
            "amount": 0
        },
        {
            "id": "i016",
            "normal": true,
            "geoLocation": false,
            "timed": false,
            "dated": false,
            "quantity": false,
            "unique": false,
            "monthly": false,
            "weekly": false,
        
            "location": {
                "x": 0,
                "y": 0
            },
        
            "minutes": 0,
        
            "dateTime": {
                "year": 0,
                "month": 0,
                "day": 0,
                "hour": 0,
                "minutes": 0,
                "seconds": 0,
                "miliseconds": 0
            },
        
            "amount": 0
        },
        {
            "id": "i017",
            "normal": true,
            "geoLocation": false,
            "timed": false,
            "dated": false,
            "quantity": false,
            "unique": false,
            "monthly": false,
            "weekly": false,
        
            "location": {
                "x": 0,
                "y": 0
            },
        
            "minutes": 0,
        
            "dateTime": {
                "year": 0,
                "month": 0,
                "day": 0,
                "hour": 0,
                "minutes": 0,
                "seconds": 0,
                "miliseconds": 0
            },
        
            "amount": 0
        },
        {
            "id": "i018",
            "normal": true,
            "geoLocation": false,
            "timed": false,
            "dated": false,
            "quantity": false,
            "unique": false,
            "monthly": false,
            "weekly": false,
        
            "location": {
                "x": 0,
                "y": 0
            },
        
            "minutes": 0,
        
            "dateTime": {
                "year": 0,
                "month": 0,
                "day": 0,
                "hour": 0,
                "minutes": 0,
                "seconds": 0,
                "miliseconds": 0
            },
        
            "amount": 0
        },
        {
            "id": "i019",
            "normal": true,
            "geoLocation": false,
            "timed": false,
            "dated": false,
            "quantity": false,
            "unique": false,
            "monthly": false,
            "weekly": false,
        
            "location": {
                "x": 0,
                "y": 0
            },
        
            "minutes": 0,
        
            "dateTime": {
                "year": 0,
                "month": 0,
                "day": 0,
                "hour": 0,
                "minutes": 0,
                "seconds": 0,
                "miliseconds": 0
            },
        
            "amount": 0
        },
        {
            "id": "i020",
            "normal": true,
            "geoLocation": false,
            "timed": false,
            "dated": false,
            "quantity": false,
            "unique": false,
            "monthly": false,
            "weekly": false,
        
            "location": {
                "x": 0,
                "y": 0
            },
        
            "minutes": 0,
        
            "dateTime": {
                "year": 0,
                "month": 0,
                "day": 0,
                "hour": 0,
                "minutes": 0,
                "seconds": 0,
                "miliseconds": 0
            },
        
            "amount": 0
        },
        {
            "id": "aaaa",
            "normal": true,
            "geoLocation": false,
            "timed": false,
            "dated": false,
            "quantity": false,
            "unique": false,
            "monthly": false,
            "weekly": false,
        
            "location": {
                "x": 0,
                "y": 0
            },
        
            "minutes": 0,
        
            "dateTime": {
                "year": 0,
                "month": 0,
                "day": 0,
                "hour": 0,
                "minutes": 0,
                "seconds": 0,
                "miliseconds": 0
            },
        
            "amount": 0
        },
        {
            "id": "bbbb",
            "normal": true,
            "geoLocation": false,
            "timed": false,
            "dated": false,
            "quantity": false,
            "unique": false,
            "monthly": false,
            "weekly": false,
        
            "location": {
                "x": 0,
                "y": 0
            },
        
            "minutes": 0,
        
            "dateTime": {
                "year": 0,
                "month": 0,
                "day": 0,
                "hour": 0,
                "minutes": 0,
                "seconds": 0,
                "miliseconds": 0
            },
        
            "amount": 0
        },
        {
            "id": "cccc",
            "normal": true,
            "geoLocation": false,
            "timed": false,
            "dated": false,
            "quantity": false,
            "unique": false,
            "monthly": false,
            "weekly": false,
        
            "location": {
                "x": 0,
                "y": 0
            },
        
            "minutes": 0,
        
            "dateTime": {
                "year": 0,
                "month": 0,
                "day": 0,
                "hour": 0,
                "minutes": 0,
                "seconds": 0,
                "miliseconds": 0
            },
        
            "amount": 0
        },
        {
            "id": "dddd",
            "normal": true,
            "geoLocation": false,
            "timed": false,
            "dated": false,
            "quantity": false,
            "unique": false,
            "monthly": false,
            "weekly": false,
        
            "location": {
                "x": 0,
                "y": 0
            },
        
            "minutes": 0,
        
            "dateTime": {
                "year": 0,
                "month": 0,
                "day": 0,
                "hour": 0,
                "minutes": 0,
                "seconds": 0,
                "miliseconds": 0
            },
        
            "amount": 0
        },
        {
            "id": "eeee",
            "normal": true,
            "geoLocation": false,
            "timed": false,
            "dated": false,
            "quantity": false,
            "unique": false,
            "monthly": false,
            "weekly": false,
        
            "location": {
                "x": 0,
                "y": 0
            },
        
            "minutes": 0,
        
            "dateTime": {
                "year": 0,
                "month": 0,
                "day": 0,
                "hour": 0,
                "minutes": 0,
                "seconds": 0,
                "miliseconds": 0
            },
        
            "amount": 0
        },
        {
            "id": "ffff",
            "normal": true,
            "geoLocation": false,
            "timed": false,
            "dated": false,
            "quantity": false,
            "unique": false,
            "monthly": false,
            "weekly": false,
        
            "location": {
                "x": 0,
                "y": 0
            },
        
            "minutes": 0,
        
            "dateTime": {
                "year": 0,
                "month": 0,
                "day": 0,
                "hour": 0,
                "minutes": 0,
                "seconds": 0,
                "miliseconds": 0
            },
        
            "amount": 0
        },
        {
            "id": "gggg",
            "normal": true,
            "geoLocation": false,
            "timed": false,
            "dated": false,
            "quantity": false,
            "unique": false,
            "monthly": false,
            "weekly": false,
        
            "location": {
                "x": 0,
                "y": 0
            },
        
            "minutes": 0,
        
            "dateTime": {
                "year": 0,
                "month": 0,
                "day": 0,
                "hour": 0,
                "minutes": 0,
                "seconds": 0,
                "miliseconds": 0
            },
        
            "amount": 0
        },
        {
            "id": "hhhh",
            "normal": true,
            "geoLocation": false,
            "timed": false,
            "dated": false,
            "quantity": false,
            "unique": false,
            "monthly": false,
            "weekly": false,
        
            "location": {
                "x": 0,
                "y": 0
            },
        
            "minutes": 0,
        
            "dateTime": {
                "year": 0,
                "month": 0,
                "day": 0,
                "hour": 0,
                "minutes": 0,
                "seconds": 0,
                "miliseconds": 0
            },
        
            "amount": 0
        },
        {
            "id": "iiii",
            "normal": true,
            "geoLocation": false,
            "timed": false,
            "dated": false,
            "quantity": false,
            "unique": false,
            "monthly": false,
            "weekly": false,
        
            "location": {
                "x": 0,
                "y": 0
            },
        
            "minutes": 0,
        
            "dateTime": {
                "year": 0,
                "month": 0,
                "day": 0,
                "hour": 0,
                "minutes": 0,
                "seconds": 0,
                "miliseconds": 0
            },
        
            "amount": 0
        },
        {
            "id": "jjjj",
            "normal": true,
            "geoLocation": false,
            "timed": false,
            "dated": false,
            "quantity": false,
            "unique": false,
            "monthly": false,
            "weekly": false,
        
            "location": {
                "x": 0,
                "y": 0
            },
        
            "minutes": 0,
        
            "dateTime": {
                "year": 0,
                "month": 0,
                "day": 0,
                "hour": 0,
                "minutes": 0,
                "seconds": 0,
                "miliseconds": 0
            },
        
            "amount": 0
        },
        {
            "id": "ma01",
            "normal": true,
            "geoLocation": false,
            "timed": false,
            "dated": false,
            "quantity": false,
            "unique": true,
            "monthly": false,
            "weekly": false,
        
            "location": {
                "x": 0,
                "y": 0
            },
        
            "minutes": 0,
        
            "dateTime": {
                "year": 0,
                "month": 0,
                "day": 0,
                "hour": 0,
                "minutes": 0,
                "seconds": 0,
                "miliseconds": 0
            },
        
            "amount": 0
        },
        {
            "id": "ma02",
            "normal": true,
            "geoLocation": false,
            "timed": false,
            "dated": false,
            "quantity": false,
            "unique": true,
            "monthly": false,
            "weekly": false,
        
            "location": {
                "x": 0,
                "y": 0
            },
        
            "minutes": 0,
        
            "dateTime": {
                "year": 0,
                "month": 0,
                "day": 0,
                "hour": 0,
                "minutes": 0,
                "seconds": 0,
                "miliseconds": 0
            },
        
            "amount": 0
        },
        {
            "id": "ma03",
            "normal": true,
            "geoLocation": false,
            "timed": false,
            "dated": false,
            "quantity": false,
            "unique": true,
            "monthly": false,
            "weekly": false,
        
            "location": {
                "x": 0,
                "y": 0
            },
        
            "minutes": 0,
        
            "dateTime": {
                "year": 0,
                "month": 0,
                "day": 0,
                "hour": 0,
                "minutes": 0,
                "seconds": 0,
                "miliseconds": 0
            },
        
            "amount": 0
        },
        {
            "id": "ma04",
            "normal": true,
            "geoLocation": false,
            "timed": false,
            "dated": false,
            "quantity": false,
            "unique": true,
            "monthly": false,
            "weekly": false,
        
            "location": {
                "x": 0,
                "y": 0
            },
        
            "minutes": 0,
        
            "dateTime": {
                "year": 0,
                "month": 0,
                "day": 0,
                "hour": 0,
                "minutes": 0,
                "seconds": 0,
                "miliseconds": 0
            },
        
            "amount": 0
        },
        {
            "id": "ma05",
            "normal": true,
            "geoLocation": false,
            "timed": false,
            "dated": false,
            "quantity": false,
            "unique": true,
            "monthly": false,
            "weekly": false,
        
            "location": {
                "x": 0,
                "y": 0
            },
        
            "minutes": 0,
        
            "dateTime": {
                "year": 0,
                "month": 0,
                "day": 0,
                "hour": 0,
                "minutes": 0,
                "seconds": 0,
                "miliseconds": 0
            },
        
            "amount": 0
        },
        {
            "id": "ma06",
            "normal": true,
            "geoLocation": false,
            "timed": false,
            "dated": false,
            "quantity": false,
            "unique": true,
            "monthly": false,
            "weekly": false,
        
            "location": {
                "x": 0,
                "y": 0
            },
        
            "minutes": 0,
        
            "dateTime": {
                "year": 0,
                "month": 0,
                "day": 0,
                "hour": 0,
                "minutes": 0,
                "seconds": 0,
                "miliseconds": 0
            },
        
            "amount": 0
        },
        {
            "id": "ma07",
            "normal": true,
            "geoLocation": false,
            "timed": false,
            "dated": false,
            "quantity": false,
            "unique": true,
            "monthly": false,
            "weekly": false,
        
            "location": {
                "x": 0,
                "y": 0
            },
        
            "minutes": 0,
        
            "dateTime": {
                "year": 0,
                "month": 0,
                "day": 0,
                "hour": 0,
                "minutes": 0,
                "seconds": 0,
                "miliseconds": 0
            },
        
            "amount": 0
        },
        {
            "id": "ma08",
            "normal": true,
            "geoLocation": false,
            "timed": false,
            "dated": false,
            "quantity": false,
            "unique": true,
            "monthly": false,
            "weekly": false,
        
            "location": {
                "x": 0,
                "y": 0
            },
        
            "minutes": 0,
        
            "dateTime": {
                "year": 0,
                "month": 0,
                "day": 0,
                "hour": 0,
                "minutes": 0,
                "seconds": 0,
                "miliseconds": 0
            },
        
            "amount": 0
        },
        {
            "id": "ma09",
            "normal": true,
            "geoLocation": false,
            "timed": false,
            "dated": false,
            "quantity": false,
            "unique": true,
            "monthly": false,
            "weekly": false,
        
            "location": {
                "x": 0,
                "y": 0
            },
        
            "minutes": 0,
        
            "dateTime": {
                "year": 0,
                "month": 0,
                "day": 0,
                "hour": 0,
                "minutes": 0,
                "seconds": 0,
                "miliseconds": 0
            },
        
            "amount": 0
        },
        {
            "id": "ma10",
            "normal": true,
            "geoLocation": false,
            "timed": false,
            "dated": false,
            "quantity": false,
            "unique": true,
            "monthly": false,
            "weekly": false,
        
            "location": {
                "x": 0,
                "y": 0
            },
        
            "minutes": 0,
        
            "dateTime": {
                "year": 0,
                "month": 0,
                "day": 0,
                "hour": 0,
                "minutes": 0,
                "seconds": 0,
                "miliseconds": 0
            },
        
            "amount": 0
        },
        {
            "id": "ma11",
            "normal": true,
            "geoLocation": false,
            "timed": false,
            "dated": false,
            "quantity": false,
            "unique": true,
            "monthly": false,
            "weekly": false,
        
            "location": {
                "x": 0,
                "y": 0
            },
        
            "minutes": 0,
        
            "dateTime": {
                "year": 0,
                "month": 0,
                "day": 0,
                "hour": 0,
                "minutes": 0,
                "seconds": 0,
                "miliseconds": 0
            },
        
            "amount": 0
        },
        {
            "id": "ma12",
            "normal": true,
            "geoLocation": false,
            "timed": false,
            "dated": false,
            "quantity": false,
            "unique": true,
            "monthly": false,
            "weekly": false,
        
            "location": {
                "x": 0,
                "y": 0
            },
        
            "minutes": 0,
        
            "dateTime": {
                "year": 0,
                "month": 0,
                "day": 0,
                "hour": 0,
                "minutes": 0,
                "seconds": 0,
                "miliseconds": 0
            },
        
            "amount": 0
        },
        {
            "id": "ma13",
            "normal": true,
            "geoLocation": false,
            "timed": false,
            "dated": false,
            "quantity": false,
            "unique": true,
            "monthly": false,
            "weekly": false,
        
            "location": {
                "x": 0,
                "y": 0
            },
        
            "minutes": 0,
        
            "dateTime": {
                "year": 0,
                "month": 0,
                "day": 0,
                "hour": 0,
                "minutes": 0,
                "seconds": 0,
                "miliseconds": 0
            },
        
            "amount": 0
        },
        {
            "id": "ma14",
            "normal": true,
            "geoLocation": false,
            "timed": false,
            "dated": false,
            "quantity": false,
            "unique": true,
            "monthly": false,
            "weekly": false,
        
            "location": {
                "x": 0,
                "y": 0
            },
        
            "minutes": 0,
        
            "dateTime": {
                "year": 0,
                "month": 0,
                "day": 0,
                "hour": 0,
                "minutes": 0,
                "seconds": 0,
                "miliseconds": 0
            },
        
            "amount": 0
        },
        {
            "id": "ma15",
            "normal": true,
            "geoLocation": false,
            "timed": false,
            "dated": false,
            "quantity": false,
            "unique": true,
            "monthly": false,
            "weekly": false,
        
            "location": {
                "x": 0,
                "y": 0
            },
        
            "minutes": 0,
        
            "dateTime": {
                "year": 0,
                "month": 0,
                "day": 0,
                "hour": 0,
                "minutes": 0,
                "seconds": 0,
                "miliseconds": 0
            },
        
            "amount": 0
        },
        {
            "id": "ma16",
            "normal": true,
            "geoLocation": false,
            "timed": false,
            "dated": false,
            "quantity": false,
            "unique": true,
            "monthly": false,
            "weekly": false,
        
            "location": {
                "x": 0,
                "y": 0
            },
        
            "minutes": 0,
        
            "dateTime": {
                "year": 0,
                "month": 0,
                "day": 0,
                "hour": 0,
                "minutes": 0,
                "seconds": 0,
                "miliseconds": 0
            },
        
            "amount": 0
        },
        {
            "id": "ma17",
            "normal": true,
            "geoLocation": false,
            "timed": false,
            "dated": false,
            "quantity": false,
            "unique": true,
            "monthly": false,
            "weekly": false,
        
            "location": {
                "x": 0,
                "y": 0
            },
        
            "minutes": 0,
        
            "dateTime": {
                "year": 0,
                "month": 0,
                "day": 0,
                "hour": 0,
                "minutes": 0,
                "seconds": 0,
                "miliseconds": 0
            },
        
            "amount": 0
        },
        {
            "id": "ma18",
            "normal": true,
            "geoLocation": false,
            "timed": false,
            "dated": false,
            "quantity": false,
            "unique": true,
            "monthly": false,
            "weekly": false,
        
            "location": {
                "x": 0,
                "y": 0
            },
        
            "minutes": 0,
        
            "dateTime": {
                "year": 0,
                "month": 0,
                "day": 0,
                "hour": 0,
                "minutes": 0,
                "seconds": 0,
                "miliseconds": 0
            },
        
            "amount": 0
        },
        {
            "id": "ma19",
            "normal": true,
            "geoLocation": false,
            "timed": false,
            "dated": false,
            "quantity": false,
            "unique": false,
            "monthly": false,
            "weekly": true,
        
            "location": {
                "x": 0,
                "y": 0
            },
        
            "minutes": 0,
        
            "dateTime": {
                "year": 0,
                "month": 0,
                "day": 0,
                "hour": 0,
                "minutes": 0,
                "seconds": 0,
                "miliseconds": 0
            },
        
            "amount": 0
        },
        {
            "id": "ma20",
            "normal": true,
            "geoLocation": false,
            "timed": false,
            "dated": false,
            "quantity": false,
            "unique": false,
            "monthly": false,
            "weekly": true,
        
            "location": {
                "x": 0,
                "y": 0
            },
        
            "minutes": 0,
        
            "dateTime": {
                "year": 0,
                "month": 0,
                "day": 0,
                "hour": 0,
                "minutes": 0,
                "seconds": 0,
                "miliseconds": 0
            },
        
            "amount": 0
        }
    ]
}